%TF.GenerationSoftware,KiCad,Pcbnew,7.0.6-7.0.6~ubuntu22.04.1*%
%TF.CreationDate,2024-06-11T16:25:45+02:00*%
%TF.ProjectId,panel2_subpanel,70616e65-6c32-45f7-9375-6270616e656c,rev?*%
%TF.SameCoordinates,Original*%
%TF.FileFunction,Drillmap*%
%TF.FilePolarity,Positive*%
%FSLAX45Y45*%
G04 Gerber Fmt 4.5, Leading zero omitted, Abs format (unit mm)*
G04 Created by KiCad (PCBNEW 7.0.6-7.0.6~ubuntu22.04.1) date 2024-06-11 16:25:45*
%MOMM*%
%LPD*%
G01*
G04 APERTURE LIST*
%ADD10C,0.100000*%
%ADD11C,0.200000*%
G04 APERTURE END LIST*
D10*
X13000000Y-5500000D02*
X13000000Y-15500000D01*
X8000000Y-5500000D02*
X8000000Y-15500000D01*
X10500000Y-5500000D02*
X10500000Y-15500000D01*
X5500000Y-8000000D02*
X15500000Y-8000000D01*
X5500000Y-13000000D02*
X15500000Y-13000000D01*
X5500000Y-5500000D02*
X15500000Y-5500000D01*
X15500000Y-15500000D01*
X5500000Y-15500000D01*
X5500000Y-5500000D01*
X5500000Y-10500000D02*
X15500000Y-10500000D01*
D11*
X5755777Y-15816484D02*
X5755777Y-15616484D01*
X5755777Y-15616484D02*
X5803396Y-15616484D01*
X5803396Y-15616484D02*
X5831967Y-15626008D01*
X5831967Y-15626008D02*
X5851015Y-15645055D01*
X5851015Y-15645055D02*
X5860539Y-15664103D01*
X5860539Y-15664103D02*
X5870062Y-15702198D01*
X5870062Y-15702198D02*
X5870062Y-15730769D01*
X5870062Y-15730769D02*
X5860539Y-15768865D01*
X5860539Y-15768865D02*
X5851015Y-15787912D01*
X5851015Y-15787912D02*
X5831967Y-15806960D01*
X5831967Y-15806960D02*
X5803396Y-15816484D01*
X5803396Y-15816484D02*
X5755777Y-15816484D01*
X5955777Y-15816484D02*
X5955777Y-15683150D01*
X5955777Y-15721246D02*
X5965301Y-15702198D01*
X5965301Y-15702198D02*
X5974824Y-15692674D01*
X5974824Y-15692674D02*
X5993872Y-15683150D01*
X5993872Y-15683150D02*
X6012920Y-15683150D01*
X6079586Y-15816484D02*
X6079586Y-15683150D01*
X6079586Y-15616484D02*
X6070062Y-15626008D01*
X6070062Y-15626008D02*
X6079586Y-15635531D01*
X6079586Y-15635531D02*
X6089110Y-15626008D01*
X6089110Y-15626008D02*
X6079586Y-15616484D01*
X6079586Y-15616484D02*
X6079586Y-15635531D01*
X6203396Y-15816484D02*
X6184348Y-15806960D01*
X6184348Y-15806960D02*
X6174824Y-15787912D01*
X6174824Y-15787912D02*
X6174824Y-15616484D01*
X6308158Y-15816484D02*
X6289110Y-15806960D01*
X6289110Y-15806960D02*
X6279586Y-15787912D01*
X6279586Y-15787912D02*
X6279586Y-15616484D01*
X6536729Y-15816484D02*
X6536729Y-15616484D01*
X6536729Y-15616484D02*
X6603396Y-15759341D01*
X6603396Y-15759341D02*
X6670062Y-15616484D01*
X6670062Y-15616484D02*
X6670062Y-15816484D01*
X6851015Y-15816484D02*
X6851015Y-15711722D01*
X6851015Y-15711722D02*
X6841491Y-15692674D01*
X6841491Y-15692674D02*
X6822443Y-15683150D01*
X6822443Y-15683150D02*
X6784348Y-15683150D01*
X6784348Y-15683150D02*
X6765301Y-15692674D01*
X6851015Y-15806960D02*
X6831967Y-15816484D01*
X6831967Y-15816484D02*
X6784348Y-15816484D01*
X6784348Y-15816484D02*
X6765301Y-15806960D01*
X6765301Y-15806960D02*
X6755777Y-15787912D01*
X6755777Y-15787912D02*
X6755777Y-15768865D01*
X6755777Y-15768865D02*
X6765301Y-15749817D01*
X6765301Y-15749817D02*
X6784348Y-15740293D01*
X6784348Y-15740293D02*
X6831967Y-15740293D01*
X6831967Y-15740293D02*
X6851015Y-15730769D01*
X6946253Y-15683150D02*
X6946253Y-15883150D01*
X6946253Y-15692674D02*
X6965301Y-15683150D01*
X6965301Y-15683150D02*
X7003396Y-15683150D01*
X7003396Y-15683150D02*
X7022443Y-15692674D01*
X7022443Y-15692674D02*
X7031967Y-15702198D01*
X7031967Y-15702198D02*
X7041491Y-15721246D01*
X7041491Y-15721246D02*
X7041491Y-15778388D01*
X7041491Y-15778388D02*
X7031967Y-15797436D01*
X7031967Y-15797436D02*
X7022443Y-15806960D01*
X7022443Y-15806960D02*
X7003396Y-15816484D01*
X7003396Y-15816484D02*
X6965301Y-15816484D01*
X6965301Y-15816484D02*
X6946253Y-15806960D01*
X7127205Y-15797436D02*
X7136729Y-15806960D01*
X7136729Y-15806960D02*
X7127205Y-15816484D01*
X7127205Y-15816484D02*
X7117682Y-15806960D01*
X7117682Y-15806960D02*
X7127205Y-15797436D01*
X7127205Y-15797436D02*
X7127205Y-15816484D01*
X7127205Y-15692674D02*
X7136729Y-15702198D01*
X7136729Y-15702198D02*
X7127205Y-15711722D01*
X7127205Y-15711722D02*
X7117682Y-15702198D01*
X7117682Y-15702198D02*
X7127205Y-15692674D01*
X7127205Y-15692674D02*
X7127205Y-15711722D01*
M02*
