M48
; DRILL file {KiCad 7.0.6-7.0.6~ubuntu22.04.1} date mar 11 giu 2024, 16:25:38
; FORMAT={-:-/ absolute / metric / decimal}
; #@! TF.CreationDate,2024-06-11T16:25:38+02:00
; #@! TF.GenerationSoftware,Kicad,Pcbnew,7.0.6-7.0.6~ubuntu22.04.1
; #@! TF.FileFunction,Plated,1,2,PTH
FMAT,2
METRIC
; #@! TA.AperFunction,Plated,PTH,ViaDrill
T1C0.400
; #@! TA.AperFunction,Plated,PTH,ComponentDrill
T2C0.560
; #@! TA.AperFunction,Plated,PTH,ComponentDrill
T3C1.000
; #@! TA.AperFunction,Plated,PTH,ComponentDrill
T4C2.200
%
G90
G05
T1
X58.45Y-57.55
X58.45Y-76.9
X58.45Y-82.55
X58.45Y-101.9
X58.45Y-107.55
X58.45Y-126.9
X58.45Y-132.55
X58.45Y-151.9
X59.6Y-73.85
X59.6Y-98.85
X59.6Y-123.85
X59.6Y-148.85
X66.5Y-62.3
X66.5Y-63.7
X66.5Y-68.8
X66.5Y-72.5
X66.5Y-75.7
X66.5Y-87.3
X66.5Y-88.7
X66.5Y-93.8
X66.5Y-97.5
X66.5Y-100.7
X66.5Y-112.3
X66.5Y-113.7
X66.5Y-118.8
X66.5Y-122.5
X66.5Y-125.7
X66.5Y-137.3
X66.5Y-138.7
X66.5Y-143.8
X66.5Y-147.5
X66.5Y-150.7
X72.5Y-62.3
X72.5Y-66.2
X72.5Y-68.8
X72.5Y-72.4
X72.5Y-87.3
X72.5Y-91.2
X72.5Y-93.8
X72.5Y-97.4
X72.5Y-112.3
X72.5Y-116.2
X72.5Y-118.8
X72.5Y-122.4
X72.5Y-137.3
X72.5Y-141.2
X72.5Y-143.8
X72.5Y-147.4
X83.45Y-57.55
X83.45Y-76.9
X83.45Y-82.55
X83.45Y-101.9
X83.45Y-107.55
X83.45Y-126.9
X83.45Y-132.55
X83.45Y-151.9
X84.6Y-73.85
X84.6Y-98.85
X84.6Y-123.85
X84.6Y-148.85
X91.5Y-62.3
X91.5Y-63.7
X91.5Y-68.8
X91.5Y-72.5
X91.5Y-75.7
X91.5Y-87.3
X91.5Y-88.7
X91.5Y-93.8
X91.5Y-97.5
X91.5Y-100.7
X91.5Y-112.3
X91.5Y-113.7
X91.5Y-118.8
X91.5Y-122.5
X91.5Y-125.7
X91.5Y-137.3
X91.5Y-138.7
X91.5Y-143.8
X91.5Y-147.5
X91.5Y-150.7
X97.5Y-62.3
X97.5Y-66.2
X97.5Y-68.8
X97.5Y-72.4
X97.5Y-87.3
X97.5Y-91.2
X97.5Y-93.8
X97.5Y-97.4
X97.5Y-112.3
X97.5Y-116.2
X97.5Y-118.8
X97.5Y-122.4
X97.5Y-137.3
X97.5Y-141.2
X97.5Y-143.8
X97.5Y-147.4
X108.45Y-57.55
X108.45Y-76.9
X108.45Y-82.55
X108.45Y-101.9
X108.45Y-107.55
X108.45Y-126.9
X108.45Y-132.55
X108.45Y-151.9
X109.6Y-73.85
X109.6Y-98.85
X109.6Y-123.85
X109.6Y-148.85
X116.5Y-62.3
X116.5Y-63.7
X116.5Y-68.8
X116.5Y-72.5
X116.5Y-75.7
X116.5Y-87.3
X116.5Y-88.7
X116.5Y-93.8
X116.5Y-97.5
X116.5Y-100.7
X116.5Y-112.3
X116.5Y-113.7
X116.5Y-118.8
X116.5Y-122.5
X116.5Y-125.7
X116.5Y-137.3
X116.5Y-138.7
X116.5Y-143.8
X116.5Y-147.5
X116.5Y-150.7
X122.5Y-62.3
X122.5Y-66.2
X122.5Y-68.8
X122.5Y-72.4
X122.5Y-87.3
X122.5Y-91.2
X122.5Y-93.8
X122.5Y-97.4
X122.5Y-112.3
X122.5Y-116.2
X122.5Y-118.8
X122.5Y-122.4
X122.5Y-137.3
X122.5Y-141.2
X122.5Y-143.8
X122.5Y-147.4
X133.45Y-57.55
X133.45Y-76.9
X133.45Y-82.55
X133.45Y-101.9
X133.45Y-107.55
X133.45Y-126.9
X133.45Y-132.55
X133.45Y-151.9
X134.6Y-73.85
X134.6Y-98.85
X134.6Y-123.85
X134.6Y-148.85
X141.5Y-62.3
X141.5Y-63.7
X141.5Y-68.8
X141.5Y-72.5
X141.5Y-75.7
X141.5Y-87.3
X141.5Y-88.7
X141.5Y-93.8
X141.5Y-97.5
X141.5Y-100.7
X141.5Y-112.3
X141.5Y-113.7
X141.5Y-118.8
X141.5Y-122.5
X141.5Y-125.7
X141.5Y-137.3
X141.5Y-138.7
X141.5Y-143.8
X141.5Y-147.5
X141.5Y-150.7
X147.5Y-62.3
X147.5Y-66.2
X147.5Y-68.8
X147.5Y-72.4
X147.5Y-87.3
X147.5Y-91.2
X147.5Y-93.8
X147.5Y-97.4
X147.5Y-112.3
X147.5Y-116.2
X147.5Y-118.8
X147.5Y-122.4
X147.5Y-137.3
X147.5Y-141.2
X147.5Y-143.8
X147.5Y-147.4
T2
X57.73Y-63.69
X57.73Y-64.96
X57.73Y-66.23
X57.73Y-67.5
X57.73Y-68.77
X57.73Y-70.04
X57.73Y-71.31
X57.73Y-88.69
X57.73Y-89.96
X57.73Y-91.23
X57.73Y-92.5
X57.73Y-93.77
X57.73Y-95.04
X57.73Y-96.31
X57.73Y-113.69
X57.73Y-114.96
X57.73Y-116.23
X57.73Y-117.5
X57.73Y-118.77
X57.73Y-120.04
X57.73Y-121.31
X57.73Y-138.69
X57.73Y-139.96
X57.73Y-141.23
X57.73Y-142.5
X57.73Y-143.77
X57.73Y-145.04
X57.73Y-146.31
X59.0Y-63.69
X59.0Y-64.96
X59.0Y-66.23
X59.0Y-67.5
X59.0Y-68.77
X59.0Y-70.04
X59.0Y-71.31
X59.0Y-88.69
X59.0Y-89.96
X59.0Y-91.23
X59.0Y-92.5
X59.0Y-93.77
X59.0Y-95.04
X59.0Y-96.31
X59.0Y-113.69
X59.0Y-114.96
X59.0Y-116.23
X59.0Y-117.5
X59.0Y-118.77
X59.0Y-120.04
X59.0Y-121.31
X59.0Y-138.69
X59.0Y-139.96
X59.0Y-141.23
X59.0Y-142.5
X59.0Y-143.77
X59.0Y-145.04
X59.0Y-146.31
X76.23Y-66.23
X76.23Y-67.5
X76.23Y-68.77
X76.23Y-91.23
X76.23Y-92.5
X76.23Y-93.77
X76.23Y-116.23
X76.23Y-117.5
X76.23Y-118.77
X76.23Y-141.23
X76.23Y-142.5
X76.23Y-143.77
X77.5Y-66.23
X77.5Y-67.5
X77.5Y-68.77
X77.5Y-91.23
X77.5Y-92.5
X77.5Y-93.77
X77.5Y-116.23
X77.5Y-117.5
X77.5Y-118.77
X77.5Y-141.23
X77.5Y-142.5
X77.5Y-143.77
X82.73Y-63.69
X82.73Y-64.96
X82.73Y-66.23
X82.73Y-67.5
X82.73Y-68.77
X82.73Y-70.04
X82.73Y-71.31
X82.73Y-88.69
X82.73Y-89.96
X82.73Y-91.23
X82.73Y-92.5
X82.73Y-93.77
X82.73Y-95.04
X82.73Y-96.31
X82.73Y-113.69
X82.73Y-114.96
X82.73Y-116.23
X82.73Y-117.5
X82.73Y-118.77
X82.73Y-120.04
X82.73Y-121.31
X82.73Y-138.69
X82.73Y-139.96
X82.73Y-141.23
X82.73Y-142.5
X82.73Y-143.77
X82.73Y-145.04
X82.73Y-146.31
X84.0Y-63.69
X84.0Y-64.96
X84.0Y-66.23
X84.0Y-67.5
X84.0Y-68.77
X84.0Y-70.04
X84.0Y-71.31
X84.0Y-88.69
X84.0Y-89.96
X84.0Y-91.23
X84.0Y-92.5
X84.0Y-93.77
X84.0Y-95.04
X84.0Y-96.31
X84.0Y-113.69
X84.0Y-114.96
X84.0Y-116.23
X84.0Y-117.5
X84.0Y-118.77
X84.0Y-120.04
X84.0Y-121.31
X84.0Y-138.69
X84.0Y-139.96
X84.0Y-141.23
X84.0Y-142.5
X84.0Y-143.77
X84.0Y-145.04
X84.0Y-146.31
X101.23Y-66.23
X101.23Y-67.5
X101.23Y-68.77
X101.23Y-91.23
X101.23Y-92.5
X101.23Y-93.77
X101.23Y-116.23
X101.23Y-117.5
X101.23Y-118.77
X101.23Y-141.23
X101.23Y-142.5
X101.23Y-143.77
X102.5Y-66.23
X102.5Y-67.5
X102.5Y-68.77
X102.5Y-91.23
X102.5Y-92.5
X102.5Y-93.77
X102.5Y-116.23
X102.5Y-117.5
X102.5Y-118.77
X102.5Y-141.23
X102.5Y-142.5
X102.5Y-143.77
X107.73Y-63.69
X107.73Y-64.96
X107.73Y-66.23
X107.73Y-67.5
X107.73Y-68.77
X107.73Y-70.04
X107.73Y-71.31
X107.73Y-88.69
X107.73Y-89.96
X107.73Y-91.23
X107.73Y-92.5
X107.73Y-93.77
X107.73Y-95.04
X107.73Y-96.31
X107.73Y-113.69
X107.73Y-114.96
X107.73Y-116.23
X107.73Y-117.5
X107.73Y-118.77
X107.73Y-120.04
X107.73Y-121.31
X107.73Y-138.69
X107.73Y-139.96
X107.73Y-141.23
X107.73Y-142.5
X107.73Y-143.77
X107.73Y-145.04
X107.73Y-146.31
X109.0Y-63.69
X109.0Y-64.96
X109.0Y-66.23
X109.0Y-67.5
X109.0Y-68.77
X109.0Y-70.04
X109.0Y-71.31
X109.0Y-88.69
X109.0Y-89.96
X109.0Y-91.23
X109.0Y-92.5
X109.0Y-93.77
X109.0Y-95.04
X109.0Y-96.31
X109.0Y-113.69
X109.0Y-114.96
X109.0Y-116.23
X109.0Y-117.5
X109.0Y-118.77
X109.0Y-120.04
X109.0Y-121.31
X109.0Y-138.69
X109.0Y-139.96
X109.0Y-141.23
X109.0Y-142.5
X109.0Y-143.77
X109.0Y-145.04
X109.0Y-146.31
X126.23Y-66.23
X126.23Y-67.5
X126.23Y-68.77
X126.23Y-91.23
X126.23Y-92.5
X126.23Y-93.77
X126.23Y-116.23
X126.23Y-117.5
X126.23Y-118.77
X126.23Y-141.23
X126.23Y-142.5
X126.23Y-143.77
X127.5Y-66.23
X127.5Y-67.5
X127.5Y-68.77
X127.5Y-91.23
X127.5Y-92.5
X127.5Y-93.77
X127.5Y-116.23
X127.5Y-117.5
X127.5Y-118.77
X127.5Y-141.23
X127.5Y-142.5
X127.5Y-143.77
X132.73Y-63.69
X132.73Y-64.96
X132.73Y-66.23
X132.73Y-67.5
X132.73Y-68.77
X132.73Y-70.04
X132.73Y-71.31
X132.73Y-88.69
X132.73Y-89.96
X132.73Y-91.23
X132.73Y-92.5
X132.73Y-93.77
X132.73Y-95.04
X132.73Y-96.31
X132.73Y-113.69
X132.73Y-114.96
X132.73Y-116.23
X132.73Y-117.5
X132.73Y-118.77
X132.73Y-120.04
X132.73Y-121.31
X132.73Y-138.69
X132.73Y-139.96
X132.73Y-141.23
X132.73Y-142.5
X132.73Y-143.77
X132.73Y-145.04
X132.73Y-146.31
X134.0Y-63.69
X134.0Y-64.96
X134.0Y-66.23
X134.0Y-67.5
X134.0Y-68.77
X134.0Y-70.04
X134.0Y-71.31
X134.0Y-88.69
X134.0Y-89.96
X134.0Y-91.23
X134.0Y-92.5
X134.0Y-93.77
X134.0Y-95.04
X134.0Y-96.31
X134.0Y-113.69
X134.0Y-114.96
X134.0Y-116.23
X134.0Y-117.5
X134.0Y-118.77
X134.0Y-120.04
X134.0Y-121.31
X134.0Y-138.69
X134.0Y-139.96
X134.0Y-141.23
X134.0Y-142.5
X134.0Y-143.77
X134.0Y-145.04
X134.0Y-146.31
X151.23Y-66.23
X151.23Y-67.5
X151.23Y-68.77
X151.23Y-91.23
X151.23Y-92.5
X151.23Y-93.77
X151.23Y-116.23
X151.23Y-117.5
X151.23Y-118.77
X151.23Y-141.23
X151.23Y-142.5
X151.23Y-143.77
X152.5Y-66.23
X152.5Y-67.5
X152.5Y-68.77
X152.5Y-91.23
X152.5Y-92.5
X152.5Y-93.77
X152.5Y-116.23
X152.5Y-117.5
X152.5Y-118.77
X152.5Y-141.23
X152.5Y-142.5
X152.5Y-143.77
T3
X63.5Y-61.15
X63.5Y-63.69
X63.5Y-66.23
X63.5Y-68.77
X63.5Y-71.31
X63.5Y-73.85
X63.5Y-86.15
X63.5Y-88.69
X63.5Y-91.23
X63.5Y-93.77
X63.5Y-96.31
X63.5Y-98.85
X63.5Y-111.15
X63.5Y-113.69
X63.5Y-116.23
X63.5Y-118.77
X63.5Y-121.31
X63.5Y-123.85
X63.5Y-136.15
X63.5Y-138.69
X63.5Y-141.23
X63.5Y-143.77
X63.5Y-146.31
X63.5Y-148.85
X88.5Y-61.15
X88.5Y-63.69
X88.5Y-66.23
X88.5Y-68.77
X88.5Y-71.31
X88.5Y-73.85
X88.5Y-86.15
X88.5Y-88.69
X88.5Y-91.23
X88.5Y-93.77
X88.5Y-96.31
X88.5Y-98.85
X88.5Y-111.15
X88.5Y-113.69
X88.5Y-116.23
X88.5Y-118.77
X88.5Y-121.31
X88.5Y-123.85
X88.5Y-136.15
X88.5Y-138.69
X88.5Y-141.23
X88.5Y-143.77
X88.5Y-146.31
X88.5Y-148.85
X113.5Y-61.15
X113.5Y-63.69
X113.5Y-66.23
X113.5Y-68.77
X113.5Y-71.31
X113.5Y-73.85
X113.5Y-86.15
X113.5Y-88.69
X113.5Y-91.23
X113.5Y-93.77
X113.5Y-96.31
X113.5Y-98.85
X113.5Y-111.15
X113.5Y-113.69
X113.5Y-116.23
X113.5Y-118.77
X113.5Y-121.31
X113.5Y-123.85
X113.5Y-136.15
X113.5Y-138.69
X113.5Y-141.23
X113.5Y-143.77
X113.5Y-146.31
X113.5Y-148.85
X138.5Y-61.15
X138.5Y-63.69
X138.5Y-66.23
X138.5Y-68.77
X138.5Y-71.31
X138.5Y-73.85
X138.5Y-86.15
X138.5Y-88.69
X138.5Y-91.23
X138.5Y-93.77
X138.5Y-96.31
X138.5Y-98.85
X138.5Y-111.15
X138.5Y-113.69
X138.5Y-116.23
X138.5Y-118.77
X138.5Y-121.31
X138.5Y-123.85
X138.5Y-136.15
X138.5Y-138.69
X138.5Y-141.23
X138.5Y-143.77
X138.5Y-146.31
X138.5Y-148.85
T4
X76.9Y-58.1
X76.9Y-76.9
X76.9Y-83.1
X76.9Y-101.9
X76.9Y-108.1
X76.9Y-126.9
X76.9Y-133.1
X76.9Y-151.9
X101.9Y-58.1
X101.9Y-76.9
X101.9Y-83.1
X101.9Y-101.9
X101.9Y-108.1
X101.9Y-126.9
X101.9Y-133.1
X101.9Y-151.9
X126.9Y-58.1
X126.9Y-76.9
X126.9Y-83.1
X126.9Y-101.9
X126.9Y-108.1
X126.9Y-126.9
X126.9Y-133.1
X126.9Y-151.9
X151.9Y-58.1
X151.9Y-76.9
X151.9Y-83.1
X151.9Y-101.9
X151.9Y-108.1
X151.9Y-126.9
X151.9Y-133.1
X151.9Y-151.9
T0
M30
